[gd_scene load_steps=18 format=2]

[ext_resource path="res://scripts/LevelManager.gd" type="Script" id=1]
[ext_resource path="res://scenes/backgrounds/HeavenBackground.tscn" type="PackedScene" id=2]
[ext_resource path="res://scenes/backgrounds/HellBackground.tscn" type="PackedScene" id=3]
[ext_resource path="res://scripts/TutorialLocalization.gd" type="Script" id=4]
[ext_resource path="res://assets/fonts/Jellee-Roman.otf" type="DynamicFontData" id=5]
[ext_resource path="res://assets/tiles/HeavenTileSet.res" type="TileSet" id=6]
[ext_resource path="res://assets/tiles/HellTileSet.res" type="TileSet" id=7]
[ext_resource path="res://scenes/entities/props/Heavens' Keys.tscn" type="PackedScene" id=8]
[ext_resource path="res://scenes/entities/lilith/Player.tscn" type="PackedScene" id=9]
[ext_resource path="res://scenes/UI/HUD.tscn" type="PackedScene" id=10]
[ext_resource path="res://assets/music/level.ogg" type="AudioStream" id=11]
[ext_resource path="res://assets/music/hell.ogg" type="AudioStream" id=12]
[ext_resource path="res://scenes/entities/DeathPit.gd" type="Script" id=13]
[ext_resource path="res://scenes/entities/zombie/Zombie.tscn" type="PackedScene" id=14]

[sub_resource type="DynamicFont" id=1]
size = 40
font_data = ExtResource( 5 )

[sub_resource type="RectangleShape2D" id=2]
extents = Vector2( 960, 32 )

[sub_resource type="RectangleShape2D" id=3]
extents = Vector2( 960, 32 )

[node name="Level3" type="Node2D"]
script = ExtResource( 1 )

[node name="HeavenBackground" parent="." groups=[
"Heaven",
] instance=ExtResource( 2 )]
position = Vector2( 704, 335.5 )

[node name="HellBackground" parent="." instance=ExtResource( 3 )]
visible = false
position = Vector2( 800, 704 )

[node name="Camera2D" type="Camera2D" parent="." groups=[
"Hell",
]]
visible = false
position = Vector2( 640, 360 )

[node name="CenterContainer" type="CenterContainer" parent="Camera2D"]
anchor_left = 0.5
anchor_top = 0.5
anchor_right = 0.5
anchor_bottom = 0.5
margin_left = -269.0
margin_top = -24.5
margin_right = 269.0
margin_bottom = 24.5
script = ExtResource( 4 )
current_tutorial = 5

[node name="Label" type="Label" parent="Camera2D/CenterContainer"]
margin_left = 40.0
margin_right = 497.0
margin_bottom = 49.0
custom_fonts/font = SubResource( 1 )
text = "Watch out for enemies!"
align = 1
valign = 1

[node name="HeavenTile" type="TileMap" parent="." groups=[
"Heaven",
]]
scale = Vector2( 2, 2 )
tile_set = ExtResource( 6 )
cell_size = Vector2( 32, 32 )
format = 1
tile_data = PoolIntArray( -1, 10, 0, -65516, 8, 0, 65535, 10, 0, 13, 0, 0, 14, 2, 0, 18, 0, 0, 19, 2, 0, 20, 8, 0, 131071, 10, 0, 65549, 8, 0, 65550, 10, 0, 65554, 8, 0, 65555, 10, 0, 65556, 8, 0, 196607, 10, 0, 131085, 8, 0, 131086, 10, 0, 131090, 8, 0, 131091, 10, 0, 131092, 8, 0, 262143, 10, 0, 196621, 8, 0, 196622, 10, 0, 196626, 8, 0, 196627, 10, 0, 196628, 8, 0, 327679, 10, 0, 262157, 8, 0, 262158, 10, 0, 262162, 8, 0, 262163, 10, 0, 262164, 8, 0, 393215, 10, 0, 327693, 8, 0, 327694, 10, 0, 327698, 8, 0, 327699, 10, 0, 327700, 8, 0, 458751, 10, 0, 393229, 8, 0, 393230, 10, 0, 393234, 8, 0, 393235, 10, 0, 393236, 8, 0, 524287, 10, 0, 458765, 8, 0, 458766, 10, 0, 458770, 8, 0, 458771, 10, 0, 458772, 8, 0, 589823, 10, 0, 524290, 0, 0, 524291, 1, 0, 524292, 2, 0, 524301, 8, 0, 524302, 11, 0, 524303, 2, 0, 524305, 0, 0, 524306, 11, 0, 524307, 10, 0, 524308, 8, 0, 655359, 10, 0, 589826, 3, 0, 589827, 4, 0, 589828, 5, 0, 589837, 8, 0, 589838, 11, 0, 589839, 9, 0, 589840, 6, 0, 589841, 9, 0, 589842, 11, 0, 589843, 10, 0, 589844, 8, 0, 720895, 10, 0, 655373, 8, 0, 655374, 11, 0, 655375, 11, 0, 655376, 11, 0, 655377, 11, 0, 655378, 11, 0, 655379, 10, 0, 655380, 8, 0, 786431, 10, 0, 720909, 8, 0, 720910, 11, 0, 720911, 9, 0, 720912, 11, 0, 720913, 9, 0, 720914, 11, 0, 720915, 10, 0, 720916, 8, 0 )

[node name="HellTile" type="TileMap" parent="." groups=[
"Hell",
]]
visible = false
scale = Vector2( 2, 2 )
tile_set = ExtResource( 7 )
cell_size = Vector2( 32, 32 )
collision_layer = 2
collision_mask = 2
format = 1
tile_data = PoolIntArray( -1, 8, 0, -65516, 6, 0, 65535, 8, 0, 2, 6, 0, 3, 7, 0, 4, 7, 0, 5, 7, 0, 6, 7, 0, 7, 7, 0, 8, 7, 0, 9, 7, 0, 10, 7, 0, 11, 7, 0, 12, 7, 0, 13, 7, 0, 14, 7, 0, 15, 7, 0, 16, 7, 0, 17, 8, 0, 20, 6, 0, 131071, 8, 0, 65538, 6, 0, 65539, 7, 0, 65540, 7, 0, 65541, 7, 0, 65542, 7, 0, 65543, 7, 0, 65544, 7, 0, 65545, 7, 0, 65546, 7, 0, 65547, 7, 0, 65548, 7, 0, 65549, 7, 0, 65550, 7, 0, 65551, 7, 0, 65552, 7, 0, 65553, 8, 0, 65556, 6, 0, 196607, 8, 0, 131074, 6, 0, 131075, 7, 0, 131076, 7, 0, 131077, 4, 0, 131078, 4, 0, 131079, 4, 0, 131080, 4, 0, 131081, 4, 0, 131082, 4, 0, 131083, 4, 0, 131084, 4, 0, 131085, 4, 0, 131086, 4, 0, 131087, 7, 0, 131088, 7, 0, 131089, 8, 0, 131092, 6, 0, 262143, 8, 0, 196610, 6, 0, 196611, 7, 0, 196612, 8, 0, 196623, 6, 0, 196624, 7, 0, 196625, 8, 0, 196628, 6, 0, 327679, 8, 0, 262146, 6, 0, 262147, 7, 0, 262148, 8, 0, 262159, 6, 0, 262160, 7, 0, 262161, 8, 0, 262164, 6, 0, 393215, 8, 0, 327682, 3, 0, 327683, 4, 0, 327684, 5, 0, 327695, 3, 0, 327696, 4, 0, 327697, 5, 0, 327700, 6, 0, 458751, 8, 0, 393222, 0, 0, 393223, 1, 0, 393224, 2, 0, 393227, 0, 0, 393228, 1, 0, 393229, 2, 0, 393236, 6, 0, 524287, 8, 0, 458758, 3, 0, 458759, 4, 0, 458760, 5, 0, 458763, 3, 0, 458764, 4, 0, 458765, 5, 0, 458772, 6, 0, 589823, 8, 0, 524308, 6, 0, 655359, 8, 0, 589844, 6, 0, 720895, 8, 0, 655380, 6, 0, 786431, 8, 0, 720916, 6, 0 )

[node name="Heavens' Keys" parent="." instance=ExtResource( 8 )]
position = Vector2( 224, 480 )
next_level = 6

[node name="Player" parent="." instance=ExtResource( 9 )]
position = Vector2( 1056, 544 )

[node name="HUD" parent="." instance=ExtResource( 10 )]
layer = 4
current_level = 6

[node name="HeavenMusic" type="AudioStreamPlayer" parent="."]
stream = ExtResource( 11 )
bus = "BGM"

[node name="HellMusic" type="AudioStreamPlayer" parent="."]
stream = ExtResource( 12 )
bus = "BGM"

[node name="HeavenDeath" type="Area2D" parent="." groups=[
"Heaven",
]]
position = Vector2( 640, 704 )
script = ExtResource( 13 )

[node name="CollisionShape2D" type="CollisionShape2D" parent="HeavenDeath"]
shape = SubResource( 2 )

[node name="HellDeath" type="Area2D" parent="." groups=[
"Hell",
]]
visible = false
position = Vector2( 640, 0 )
collision_layer = 2
collision_mask = 2
script = ExtResource( 13 )

[node name="CollisionShape2D" type="CollisionShape2D" parent="HellDeath"]
position = Vector2( 0, 32 )
shape = SubResource( 3 )

[node name="Zombie" parent="." instance=ExtResource( 14 )]
visible = false
position = Vector2( 608, 224 )
speed = 60
[connection signal="death" from="Player" to="HUD" method="_on_Player_death"]
[connection signal="teleport" from="Player" to="." method="_on_Player_teleport"]
[connection signal="teleport" from="Player" to="HUD" method="_on_Player_teleport"]
[connection signal="body_entered" from="HeavenDeath" to="HeavenDeath" method="_on_body_entered"]
[connection signal="damage" from="HeavenDeath" to="Player" method="process_damage"]
[connection signal="body_entered" from="HellDeath" to="HellDeath" method="_on_body_entered"]
[connection signal="damage" from="HellDeath" to="Player" method="process_damage"]
