[gd_scene load_steps=16 format=2]

[ext_resource path="res://scripts/LevelManager.gd" type="Script" id=1]
[ext_resource path="res://scenes/backgrounds/HeavenBackground.tscn" type="PackedScene" id=2]
[ext_resource path="res://scenes/backgrounds/HellBackground.tscn" type="PackedScene" id=3]
[ext_resource path="res://assets/fonts/Jellee-Roman.otf" type="DynamicFontData" id=4]
[ext_resource path="res://assets/tiles/HeavenTileSet.res" type="TileSet" id=5]
[ext_resource path="res://assets/tiles/HellTileSet.res" type="TileSet" id=6]
[ext_resource path="res://scenes/entities/props/Heavens' Keys.tscn" type="PackedScene" id=7]
[ext_resource path="res://scenes/entities/lilith/Player.tscn" type="PackedScene" id=8]
[ext_resource path="res://assets/music/level.ogg" type="AudioStream" id=9]
[ext_resource path="res://assets/music/hell.ogg" type="AudioStream" id=10]
[ext_resource path="res://scenes/entities/DeathPit.gd" type="Script" id=11]
[ext_resource path="res://scenes/UI/HUD.tscn" type="PackedScene" id=12]

[sub_resource type="DynamicFont" id=1]
size = 40
font_data = ExtResource( 4 )

[sub_resource type="RectangleShape2D" id=2]
extents = Vector2( 896, 32 )

[sub_resource type="RectangleShape2D" id=3]
extents = Vector2( 896, 32 )

[node name="Level3" type="Node2D"]
script = ExtResource( 1 )

[node name="HeavenBackground" parent="." groups=[
"Heaven",
] instance=ExtResource( 2 )]
position = Vector2( 704, 335.5 )

[node name="HellBackground" parent="." instance=ExtResource( 3 )]
visible = false
position = Vector2( 800, 704 )

[node name="Camera2D" type="Camera2D" parent="."]
position = Vector2( 640, 360 )

[node name="CenterContainer" type="CenterContainer" parent="Camera2D"]
visible = false
anchor_left = 0.5
anchor_top = 0.5
anchor_right = 0.5
anchor_bottom = 0.5
margin_left = -269.0
margin_top = -24.5
margin_right = 269.0
margin_bottom = 24.5

[node name="Label" type="Label" parent="Camera2D/CenterContainer"]
margin_right = 560.0
margin_bottom = 101.0
custom_fonts/font = SubResource( 1 )
text = "Press Q/LT to jump between
Heaven and Hell"
align = 1
valign = 1

[node name="HeavenTile" type="TileMap" parent="." groups=[
"Heaven",
]]
scale = Vector2( 2, 2 )
tile_set = ExtResource( 5 )
cell_size = Vector2( 32, 32 )
format = 1
tile_data = PoolIntArray( -1, 10, 0, -65516, 8, 0, 65535, 10, 0, 20, 8, 0, 131071, 10, 0, 65556, 8, 0, 196607, 10, 0, 131092, 8, 0, 262143, 10, 0, 196617, 0, 0, 196618, 6, 0, 196619, 6, 0, 196620, 1, 0, 196621, 6, 0, 196622, 2, 0, 196628, 8, 0, 327679, 10, 0, 262153, 8, 0, 262154, 11, 0, 262155, 7, 0, 262156, 4, 0, 262157, 7, 0, 262158, 5, 0, 262164, 8, 0, 393215, 10, 0, 327689, 8, 0, 327690, 10, 0, 327700, 8, 0, 458751, 10, 0, 393220, 0, 0, 393221, 6, 0, 393222, 6, 0, 393223, 6, 0, 393224, 6, 0, 393225, 11, 0, 393226, 10, 0, 393236, 8, 0, 524287, 10, 0, 458756, 8, 0, 458757, 11, 0, 458758, 11, 0, 458759, 11, 0, 458760, 11, 0, 458761, 11, 0, 458762, 10, 0, 458772, 8, 0, 589823, 10, 0, 524292, 8, 0, 524293, 11, 0, 524294, 9, 0, 524295, 11, 0, 524296, 9, 0, 524297, 11, 0, 524298, 10, 0, 524308, 8, 0, 655359, 10, 0, 589828, 8, 0, 589829, 11, 0, 589830, 11, 0, 589831, 11, 0, 589832, 11, 0, 589833, 11, 0, 589834, 11, 0, 589835, 6, 0, 589836, 2, 0, 589844, 8, 0, 720895, 10, 0, 655364, 8, 0, 655365, 11, 0, 655366, 9, 0, 655367, 11, 0, 655368, 9, 0, 655369, 11, 0, 655370, 9, 0, 655371, 11, 0, 655372, 10, 0, 655380, 8, 0, 786431, 10, 0, 720900, 8, 0, 720901, 11, 0, 720902, 11, 0, 720903, 11, 0, 720904, 11, 0, 720905, 11, 0, 720906, 11, 0, 720907, 11, 0, 720908, 10, 0, 720916, 8, 0 )

[node name="HellTile" type="TileMap" parent="." groups=[
"Hell",
]]
visible = false
scale = Vector2( 2, 2 )
tile_set = ExtResource( 6 )
cell_size = Vector2( 32, 32 )
collision_layer = 2
collision_mask = 2
format = 1
tile_data = PoolIntArray( -1, 8, 0, -65516, 6, 0, 65535, 8, 0, 1, 6, 0, 2, 7, 0, 3, 7, 0, 4, 7, 0, 5, 7, 0, 6, 7, 0, 7, 7, 0, 8, 7, 0, 9, 7, 0, 10, 7, 0, 11, 8, 0, 14, 6, 0, 15, 7, 0, 16, 7, 0, 17, 8, 0, 20, 6, 0, 131071, 8, 0, 65537, 6, 0, 65538, 7, 0, 65539, 7, 0, 65540, 4, 0, 65541, 4, 0, 65542, 4, 0, 65543, 4, 0, 65544, 4, 0, 65545, 4, 0, 65546, 4, 0, 65547, 5, 0, 65550, 3, 0, 65551, 4, 0, 65552, 7, 0, 65553, 8, 0, 65556, 6, 0, 196607, 8, 0, 131073, 6, 0, 131074, 7, 0, 131075, 8, 0, 131088, 6, 0, 131089, 8, 0, 131092, 6, 0, 262143, 8, 0, 196609, 6, 0, 196610, 7, 0, 196611, 8, 0, 196624, 3, 0, 196625, 5, 0, 196628, 6, 0, 327679, 8, 0, 262145, 6, 0, 262146, 7, 0, 262147, 8, 0, 262164, 6, 0, 393215, 8, 0, 327681, 6, 0, 327682, 7, 0, 327683, 8, 0, 327694, 0, 0, 327695, 2, 0, 327700, 6, 0, 458751, 8, 0, 393217, 3, 0, 393218, 4, 0, 393219, 5, 0, 393227, 0, 0, 393228, 2, 0, 393230, 3, 0, 393231, 5, 0, 393236, 6, 0, 524287, 8, 0, 458763, 3, 0, 458764, 5, 0, 458772, 6, 0, 589823, 8, 0, 524308, 6, 0, 655359, 8, 0, 589844, 6, 0, 720895, 8, 0, 655380, 6, 0, 786431, 8, 0, 720916, 6, 0 )

[node name="Heavens' Keys" parent="." instance=ExtResource( 7 )]
position = Vector2( 768, 544 )
next_level = 4

[node name="Player" parent="." instance=ExtResource( 8 )]
position = Vector2( 320, 360 )

[node name="HeavenMusic" type="AudioStreamPlayer" parent="."]
stream = ExtResource( 9 )
bus = "BGM"

[node name="HellMusic" type="AudioStreamPlayer" parent="."]
stream = ExtResource( 10 )
bus = "BGM"

[node name="HeavenDeath" type="Area2D" parent="." groups=[
"Heaven",
]]
position = Vector2( 640, 704 )
script = ExtResource( 11 )

[node name="CollisionShape2D" type="CollisionShape2D" parent="HeavenDeath"]
shape = SubResource( 2 )

[node name="HellDeath" type="Area2D" parent="." groups=[
"Hell",
]]
visible = false
position = Vector2( 640, 0 )
collision_layer = 2
collision_mask = 2
script = ExtResource( 11 )

[node name="CollisionShape2D" type="CollisionShape2D" parent="HellDeath"]
position = Vector2( 0, 32 )
shape = SubResource( 3 )

[node name="HUD" parent="." instance=ExtResource( 12 )]
current_level = 4
[connection signal="death" from="Player" to="HUD" method="_on_Player_death"]
[connection signal="teleport" from="Player" to="." method="_on_Player_teleport"]
[connection signal="teleport" from="Player" to="HUD" method="_on_Player_teleport"]
[connection signal="body_entered" from="HeavenDeath" to="HeavenDeath" method="_on_body_entered"]
[connection signal="damage" from="HeavenDeath" to="Player" method="process_damage"]
[connection signal="body_entered" from="HellDeath" to="HellDeath" method="_on_body_entered"]
[connection signal="damage" from="HellDeath" to="Player" method="process_damage"]
