[gd_scene load_steps=6 format=2]

[ext_resource path="res://scenes/entities/props/MovingBlock.gd" type="Script" id=1]
[ext_resource path="res://assets/sprites/Props/MovingBlock/MovingBlock.png" type="Texture" id=2]
[ext_resource path="res://assets/sfx/push.wav" type="AudioStream" id=3]
[ext_resource path="res://assets/sfx/fall.wav" type="AudioStream" id=4]

[sub_resource type="RectangleShape2D" id=1]
extents = Vector2( 31.255, 31.0374 )

[node name="MovingBlock" type="KinematicBody2D" groups=[
"Pushable",
]]
position = Vector2( 384, 312 )
script = ExtResource( 1 )

[node name="Sprite" type="Sprite" parent="."]
scale = Vector2( 2, 2 )
texture = ExtResource( 2 )

[node name="CollisionShape2D" type="CollisionShape2D" parent="."]
position = Vector2( 0, 1 )
shape = SubResource( 1 )

[node name="FloorRayCast" type="RayCast2D" parent="."]
position = Vector2( -30.1597, 0 )
enabled = true
cast_to = Vector2( 0, 35 )

[node name="FloorRayCast2" type="RayCast2D" parent="."]
position = Vector2( 30.5278, 0 )
enabled = true
cast_to = Vector2( 0, 35 )

[node name="Push" type="AudioStreamPlayer" parent="."]
stream = ExtResource( 3 )
bus = "SFX"

[node name="Fall" type="AudioStreamPlayer" parent="."]
stream = ExtResource( 4 )
bus = "SFX"

[node name="WallRayCast" type="RayCast2D" parent="."]
enabled = true
cast_to = Vector2( 35, 0 )
